/homes/grad/amarnathmhn/ECEN_749/lab2/part1/implementation/system.ngc 1454782767
/homes/grad/amarnathmhn/ECEN_749/lab2/part1/implementation/microblaze_0_wrapper.ngc 1454782644
/homes/grad/amarnathmhn/ECEN_749/lab2/part1/implementation/mb_plb_wrapper.ngc 1454782657
/homes/grad/amarnathmhn/ECEN_749/lab2/part1/implementation/ilmb_wrapper.ngc 1454782664
/homes/grad/amarnathmhn/ECEN_749/lab2/part1/implementation/dlmb_wrapper.ngc 1454782671
/homes/grad/amarnathmhn/ECEN_749/lab2/part1/implementation/dlmb_cntlr_wrapper.ngc 1454782678
/homes/grad/amarnathmhn/ECEN_749/lab2/part1/implementation/ilmb_cntlr_wrapper.ngc 1454782684
/homes/grad/amarnathmhn/ECEN_749/lab2/part1/implementation/lmb_bram_wrapper.ngc 1454782703
/homes/grad/amarnathmhn/ECEN_749/lab2/part1/implementation/rs232_uart_1_wrapper.ngc 1454782750
/homes/grad/amarnathmhn/ECEN_749/lab2/part1/implementation/clock_generator_0_wrapper.ngc 1454782723
/homes/grad/amarnathmhn/ECEN_749/lab2/part1/implementation/debug_module_wrapper.ngc 1454782731
/homes/grad/amarnathmhn/ECEN_749/lab2/part1/implementation/proc_sys_reset_0_wrapper.ngc 1454782738
/homes/grad/amarnathmhn/ECEN_749/lab2/part1/implementation/leds_wrapper.ngc 1454782748
OK
